{
	"title": "Fence Planner",
	"listName": "Work",
	"imageFolder" : "Images/FencePlanner/",
	"videos": [
		{
			"title": "Demo",
			"link": "https://www.youtube.com/embed/N5kmXCuNmaE"
		}
	],
	"images": [
		"1.png",
		"2.png",
		"3.png",
		"4.png",
		"5.png",
		"6.png",
		"7.png",
		"8.png"
	],
	"descriptions": [
		"Following from Pergola Planner, I was given the chance to take initiative and develop a new app requested by the client. I ended up doing the majority of the application; assigning some of the existing work to newer coworkers and guiding them.",
		"As part of the process, I gained experience in:",
		"- writing editor tools to automate processes",
		"- unity UI development",
		"- giving estimates to ongoing features",
		"- debugging complex issues",
		"- optimization techniques",
		"- managing requirements from clients",
		"- managing the timeline of a project so features are done in time",
		"- database access using MySQL",
		"- managing git conflicts"
	],
	"technologies": [
		"Unity"
	],
	"buttonText": "Website",
	"buttonLink": "https://deckplanner.strongtie.com/fenceplanner"
}